<?xml version="1.0" encoding="UTF-8"?>
<session version="1.0">
<refactoring comment="Rename type &apos;com.mindtree.controller.MyControl&apos; to &apos;MusicControl&apos;&#x0D;&#x0A;- Original project: &apos;MusicStore&apos;&#x0D;&#x0A;- Original element: &apos;com.mindtree.controller.MyControl&apos;&#x0D;&#x0A;- Renamed element: &apos;com.mindtree.controller.MusicControl&apos;&#x0D;&#x0A;- Update references to refactored element&#x0D;&#x0A;- Update textual occurrences in comments and strings" description="Rename type &apos;MyControl&apos;" flags="589830" id="org.eclipse.jdt.ui.rename.type" input="/src\/main\/java&lt;com.mindtree.controller{MyControl.java[MyControl" matchStrategy="1" name="MusicControl" qualified="false" references="true" similarDeclarations="false" stamp="1522652686140" textual="false" version="1.0"/>
</session>