<?xml version="1.0" encoding="UTF-8"?>
<session version="1.0">
<refactoring comment="Rename Java project &apos;NewAssignments&apos; to &apos;EngineeringCamp&apos;&#x0D;&#x0A;- Original element: &apos;NewAssignments&apos;&#x0D;&#x0A;- Renamed element: &apos;NewAssignments&apos;&#x0D;&#x0A;- Update references to refactored element" description="Rename Java project &apos;NewAssignments&apos;" flags="7" id="org.eclipse.jdt.ui.rename.java.project" input="=NewAssignments" name="EngineeringCamp" references="true" stamp="1520308192966" version="1.0"/>
</session>