<?xml version="1.0" encoding="UTF-8"?>
<session version="1.0">
<refactoring accessors="true" comment="Delete element from project &apos;SampleWithtAnotatn&apos;&#x0D;&#x0A;- Original project: &apos;SampleWithtAnotatn&apos;&#x0D;&#x0A;- Original element: &apos;com.mindtree.controller.package-info.java&apos;" description="Delete element" element1="/src\/main\/java&lt;com.mindtree.controller{package-info.java" elements="1" flags="589830" id="org.eclipse.jdt.ui.delete" resources="0" stamp="1522861639168" subPackages="false" version="1.0"/>
</session>