127.0.0.1 - - [19/Mar/2018:00:05:41 +0530] "GET /MvcApp/student HTTP/1.1" 500 3635
127.0.0.1 - - [19/Mar/2018:00:06:47 +0530] "GET /HelloWeb/student HTTP/1.1" 404 1026
127.0.0.1 - - [19/Mar/2018:00:06:57 +0530] "GET /MvcApp/student HTTP/1.1" 500 3635
127.0.0.1 - - [19/Mar/2018:00:06:59 +0530] "GET /MvcApp/student HTTP/1.1" 500 3635
127.0.0.1 - - [19/Mar/2018:00:29:05 +0530] "GET / HTTP/1.1" 404 994
127.0.0.1 - - [19/Mar/2018:00:29:07 +0530] "GET /MvcApp/ HTTP/1.1" 500 3635
127.0.0.1 - - [19/Mar/2018:00:45:38 +0530] "GET / HTTP/1.1" 404 994
127.0.0.1 - - [19/Mar/2018:00:45:40 +0530] "GET /MvcApp/ HTTP/1.1" 404 992
127.0.0.1 - - [19/Mar/2018:00:52:37 +0530] "GET /MvcApp/ HTTP/1.1" 404 992
127.0.0.1 - - [19/Mar/2018:00:52:48 +0530] "GET /MvcApp/student HTTP/1.1" 200 931
127.0.0.1 - - [19/Mar/2018:00:52:48 +0530] "GET /favicon.ico HTTP/1.1" 404 1016
127.0.0.1 - - [19/Mar/2018:00:53:14 +0530] "POST /HelloWeb/addStudent HTTP/1.1" 404 1032
127.0.0.1 - - [19/Mar/2018:00:53:52 +0530] "GET /MvcApp/ HTTP/1.1" 404 992
127.0.0.1 - - [19/Mar/2018:00:54:07 +0530] "GET /MvcApp/result HTTP/1.1" 404 992
127.0.0.1 - - [19/Mar/2018:00:54:17 +0530] "GET /MvcApp/student HTTP/1.1" 200 931
127.0.0.1 - - [19/Mar/2018:00:54:18 +0530] "GET /favicon.ico HTTP/1.1" 404 1016
127.0.0.1 - - [19/Mar/2018:00:54:22 +0530] "POST /HelloWeb/addStudent HTTP/1.1" 404 1032
127.0.0.1 - - [19/Mar/2018:00:55:02 +0530] "GET /MvcApp/WEB-INF/web.xml HTTP/1.1" 404 992
127.0.0.1 - - [19/Mar/2018:00:55:19 +0530] "GET /MvcApp/WEB-INF/student.jsp HTTP/1.1" 404 992
127.0.0.1 - - [19/Mar/2018:00:55:32 +0530] "GET /MvcApp/student.jsp HTTP/1.1" 404 1030
127.0.0.1 - - [19/Mar/2018:00:55:38 +0530] "GET /MvcApp/student.jsp HTTP/1.1" 404 1030
127.0.0.1 - - [19/Mar/2018:00:55:39 +0530] "GET /MvcApp/student.jsp HTTP/1.1" 404 1030
127.0.0.1 - - [19/Mar/2018:00:55:40 +0530] "GET /MvcApp/student.jsp HTTP/1.1" 404 1030
127.0.0.1 - - [19/Mar/2018:00:56:45 +0530] "GET /MvcApp/WEB-INF/student.jsp HTTP/1.1" 404 992
127.0.0.1 - - [19/Mar/2018:00:57:22 +0530] "GET /MvcApp/student HTTP/1.1" 200 931
127.0.0.1 - - [19/Mar/2018:00:57:37 +0530] "GET /MvcApp/studentdata HTTP/1.1" 404 992
127.0.0.1 - - [19/Mar/2018:00:58:03 +0530] "GET /MvcApp/addStudent HTTP/1.1" 405 1088
127.0.0.1 - - [19/Mar/2018:00:58:38 +0530] "GET /MvcApp/student HTTP/1.1" 200 931
127.0.0.1 - - [19/Mar/2018:00:58:48 +0530] "GET /MvcApp/addStudent HTTP/1.1" 405 1088
127.0.0.1 - - [19/Mar/2018:00:58:55 +0530] "GET /MvcApp/student HTTP/1.1" 200 931
127.0.0.1 - - [19/Mar/2018:00:59:06 +0530] "POST /HelloWeb/addStudent HTTP/1.1" 404 1032
127.0.0.1 - - [19/Mar/2018:01:07:09 +0530] "GET / HTTP/1.1" 404 994
127.0.0.1 - - [19/Mar/2018:01:07:11 +0530] "GET /MvcApp/ HTTP/1.1" 404 992
127.0.0.1 - - [19/Mar/2018:01:07:36 +0530] "GET /MvcApp/WEB-INF/student.jsp HTTP/1.1" 404 992
127.0.0.1 - - [19/Mar/2018:01:07:49 +0530] "GET /MvcApp/student.jsp HTTP/1.1" 404 1030
127.0.0.1 - - [19/Mar/2018:01:07:53 +0530] "GET /MvcApp/student.jsp HTTP/1.1" 404 1030
127.0.0.1 - - [19/Mar/2018:01:07:55 +0530] "GET /MvcApp/student.jsp HTTP/1.1" 404 1030
127.0.0.1 - - [19/Mar/2018:01:08:02 +0530] "GET /MvcApp/student HTTP/1.1" 200 931
127.0.0.1 - - [19/Mar/2018:01:08:37 +0530] "GET /MvcApp/addStudent HTTP/1.1" 405 1088
127.0.0.1 - - [19/Mar/2018:08:58:56 +0530] "GET /MvcApp/student HTTP/1.1" 200 931
127.0.0.1 - - [19/Mar/2018:08:59:11 +0530] "POST /HelloWeb/addStudent HTTP/1.1" 404 1032
127.0.0.1 - - [19/Mar/2018:09:00:22 +0530] "GET /HelloWeb/student HTTP/1.1" 404 1026
127.0.0.1 - - [19/Mar/2018:09:00:40 +0530] "GET /MvcApp/student HTTP/1.1" 200 931
127.0.0.1 - - [19/Mar/2018:09:00:49 +0530] "POST /HelloWeb/addStudent HTTP/1.1" 404 1032
127.0.0.1 - - [19/Mar/2018:09:02:39 +0530] "GET /MvcApp/Student HTTP/1.1" 404 992
127.0.0.1 - - [19/Mar/2018:09:02:47 +0530] "GET /MvcApp/student HTTP/1.1" 200 931
127.0.0.1 - - [19/Mar/2018:09:02:57 +0530] "POST /HelloWeb/addStudent HTTP/1.1" 404 1032
127.0.0.1 - - [19/Mar/2018:09:13:18 +0530] "GET /MvcApp/student HTTP/1.1" 200 931
127.0.0.1 - - [19/Mar/2018:09:13:28 +0530] "POST /HelloWeb/addStudent HTTP/1.1" 404 1032
