127.0.0.1 - - [20/May/2018:16:28:28 +0530] "GET / HTTP/1.1" 404 994
127.0.0.1 - - [20/May/2018:16:28:30 +0530] "GET /CapabilityApp/ HTTP/1.1" 200 2
127.0.0.1 - - [20/May/2018:16:28:30 +0530] "GET /favicon.ico HTTP/1.1" 404 1016
127.0.0.1 - - [20/May/2018:16:34:59 +0530] "GET / HTTP/1.1" 404 994
127.0.0.1 - - [20/May/2018:16:35:00 +0530] "GET /CapabilityApp/ HTTP/1.1" 200 2
127.0.0.1 - - [20/May/2018:16:39:01 +0530] "GET /CapabilityApp/ HTTP/1.1" 200 2
127.0.0.1 - - [20/May/2018:16:39:42 +0530] "GET / HTTP/1.1" 404 994
127.0.0.1 - - [20/May/2018:16:39:43 +0530] "GET /CapabilityApp/ HTTP/1.1" 200 2
127.0.0.1 - - [20/May/2018:16:46:18 +0530] "GET / HTTP/1.1" 404 994
127.0.0.1 - - [20/May/2018:16:46:20 +0530] "GET /CapabilityApp/ HTTP/1.1" 200 2
127.0.0.1 - - [20/May/2018:16:51:41 +0530] "OPTIONS /CapabilityApp/addbook HTTP/1.1" 200 -
127.0.0.1 - - [20/May/2018:16:51:41 +0530] "POST /CapabilityApp/addbook HTTP/1.1" 200 -
127.0.0.1 - - [20/May/2018:16:52:15 +0530] "POST /CapabilityApp/addbook HTTP/1.1" 200 -
127.0.0.1 - - [20/May/2018:16:54:38 +0530] "POST /CapabilityApp/addbook HTTP/1.1" 200 -
127.0.0.1 - - [20/May/2018:17:06:02 +0530] "GET / HTTP/1.1" 404 994
127.0.0.1 - - [20/May/2018:17:06:03 +0530] "GET /CapabilityApp/ HTTP/1.1" 200 2
127.0.0.1 - - [20/May/2018:17:06:48 +0530] "OPTIONS /CapabilityApp/addbook HTTP/1.1" 200 -
127.0.0.1 - - [20/May/2018:17:06:49 +0530] "POST /CapabilityApp/addbook HTTP/1.1" 500 4335
127.0.0.1 - - [20/May/2018:17:07:36 +0530] "POST /CapabilityApp/addbook HTTP/1.1" 200 -
127.0.0.1 - - [20/May/2018:17:09:43 +0530] "POST /CapabilityApp/addbook HTTP/1.1" 200 -
